@startuml
'https://plantuml.com/class-diagram

interface Shape{
+draw():void
}

class Rectangle
class RoundedRectangle

abstract class AbstractShapeFactory{
 abstract Shape getShape(type: String)
}

class ShapeFactory
class RoundedShapeFactory
class ShapeFactoryProvider{
-ShapeFactoryProvider()
+{static}getShapeFactory(type:String): AbstractShapeFactory
}

Shape <|.. Rectangle
Shape <|.. RoundedRectangle

AbstractShapeFactory <|-- ShapeFactory
AbstractShapeFactory <|-- RoundedShapeFactory

@end